0-hjsochvj-ios-1-2-3.mobile-sdk-api.intercom.io
0-jovd32f9-ios-7-0-1.mobile-sdk-api.intercom.io
039da14c.ngrok.io
1rx.io
26c52281.ngrok.io
2ndswing.extole.io
354cf0bd.ngrok.io
3bc321e6.ngrok.io
3d0cb547.spacebrony.dnb.io
51b6b859ad383e749900002b.api.5rocks.io
51b6b893ad383ea5e8000035.api.5rocks.io
51f2494300821dfc51000001.api.5rocks.io
521cd44e00821d845c000001.api.5rocks.io
5227d25d00821d479c000001.api.5rocks.io
524d216100821d2b7c000001.api.5rocks.io
5297cf32ad383e194600000c.api.5rocks.io
52a7d43100821d2e77000006.api.5rocks.io
52cbd7d700821d7601000007.api.5rocks.io
52df94cd00821d4715000007.api.5rocks.io
52e78a9900821d594e00000a.api.5rocks.io
52e901376670bd396100000c.api.5rocks.io
52e901f500821d2b94000005.api.5rocks.io
52ea139cc0b218d4f0000009.api.5rocks.io
52eb482a00821d0ce9000004.api.5rocks.io
52f0426fc0b21880d6000001.api.5rocks.io
530f055d00821d95d2000001.api.5rocks.io
5316f03d333a38552e000001.api.5rocks.io
533d483b00821d72e8000001.api.5rocks.io
53436221333a3874ae000026.api.5rocks.io
5343788a333a38688b000026.api.5rocks.io
534e2361333a386c8f000008.api.5rocks.io
5350dab1333a380930000003.api.5rocks.io
5355299200821dd2b0000039.api.5rocks.io
535daa3900821d62d800000f.api.5rocks.io
535e128400821d358f000021.api.5rocks.io
5369a2c5333a38f45900001b.api.5rocks.io
53743170333a388320000006.api.5rocks.io
53759cc700821d36ac00000e.api.5rocks.io
537b022d00821dccc3000008.api.5rocks.io
537c68e600821d4f4700000f.api.5rocks.io
537ecfa500821d720b000005.api.5rocks.io
5382c5fe333a38504500004d.api.5rocks.io
5392efcf333a381aa100004e.api.5rocks.io
5396a6b400821dde6c00000c.api.5rocks.io
5397e17c00821d3fc6000012.api.5rocks.io
539aad99333a38fc3100001d.api.5rocks.io
539ac27000821dda6a00002b.api.5rocks.io
539fcfea333a38a220000001.api.5rocks.io
53a8cd67333a386ab8000004.api.5rocks.io
53ae6ca300821db6a7000006.api.5rocks.io
53b0d13e333a38f2f1000002.api.5rocks.io
53b26652333a385997000025.api.5rocks.io
53b2d4d900821da8cc000016.api.5rocks.io
53c4918600821d86a400000e.api.5rocks.io
53cf23d8333a388d0b000001.api.5rocks.io
53d21adb00821dbbf6000007.api.5rocks.io
53d5e28900821d99d4000022.api.5rocks.io
53e0c6dc00821d1e7e000008.api.5rocks.io
53e1ec7d00821dcb06000004.api.5rocks.io
53e8853400821d0512000043.api.5rocks.io
53ec8e7c00821dc949000001.api.5rocks.io
53f19485333a38ade300000c.api.5rocks.io
53f3f81600821dd5de00000f.api.5rocks.io
53f3f9ec00821d41ce000027.api.5rocks.io
53f427e2333a38f54b00000e.api.5rocks.io
53f55c12333a383161000022.api.5rocks.io
53f61879333a3802be000018.api.5rocks.io
53f71278333a38ece800001b.api.5rocks.io
53fe8fb800821dd544000019.api.5rocks.io
53fecd87333a38a3d100000b.api.5rocks.io
54080b8d333a389e1f000005.api.5rocks.io
542904a2333a384ea900000b.api.5rocks.io
5429426a333a38ea7500000e.api.5rocks.io
5432422700821d3c5000007a.api.5rocks.io
54376724333a38a25200000c.api.5rocks.io
543df6cd333a387850000013.api.5rocks.io
5444ddab00821d4825000001.api.5rocks.io
544de33400821d26ba00003a.api.5rocks.io
544f3a28333a386e11000046.api.5rocks.io
544f4dc5333a3883af00003b.api.5rocks.io
5451fd4c333a383e2c000033.api.5rocks.io
5459d15400821dd99300002d.api.5rocks.io
5463200b00821d1e4100003c.api.5rocks.io
5475b53100821da5d4000024.api.5rocks.io
547fbbd2333a38a50800000c.api.5rocks.io
54894034333a3882ab000001.api.5rocks.io
548ea0a000821d299100000a.api.5rocks.io
54aa4fbb333a38b69b00009a.api.5rocks.io
54b65c17333a38b9dc000001.api.5rocks.io
54b65d4b333a38c857000001.api.5rocks.io
54b7b26e00821d0656000020.api.5rocks.io
54d129b800821d4f3d000006.api.5rocks.io
54d2ba8c00821dbbb900000e.api.5rocks.io
54ef5ed8333a3803e0000037.api.5rocks.io
54f01948333a38f77e000001.api.5rocks.io
5rocks.io
885c93586e11cccacd647adc490c00a4.getforge.io
9ca461273c8e6f58f4614db1a554431138a1e788-android.mobile-sdk-api.intercom.io
9rijwk1f-android.mobile-sdk-api.intercom.io
a-ams.1rx.io
a-nj.1rx.io
a-sjo.1rx.io
a-v2.presage.io
a.admp.io
aaa.ipbc.io
about.coinfirm.io
ac-v1.presage.io
accounts.backtrace.io
accounts.in.backtrace.io
acorn-online.extole.io
acp.1rx.io
ad-stinger.prod.bidr.io
ad-us-east-1.pxlad.io
ad.1rx.io
ad.abema.io
ad.bitmedia.io
ad.kissanime.io
ad.kisscartoon.io
ad.pxlad.io
adalliance.io
adamatic.us-west-2.stinger-ad.bidr.io
adapt.io
adbkxfyq.apps.lair.io
adclicks.io
adgiant.io
adjust.io
adless.io
admin.dable.io
admin.lytics.io
admp.io
adobe-creative-cloud.extole.io
adserve-ams.1rx.io
adserve-nj.1rx.io
adserve-sjo.1rx.io
adstage.io
advertising.oriel.io
adxpd.dable.io
aeon-api.luckypool.io
aeon-api.uax.io
aeon.luckypool.io
aeon.uax.io
aetrex.extole.io
ah-v1.presage.io
ai.branch.io
ai.inmdata.io
ai.iol.io
aialik.branch.io
airbrake.io
ali.luckypool.io
alloy-api.luckypool.io
alloy.luckypool.io
alphonso.us-east-1.stinger-ad.bidr.io
amer01.sp.backtrace.io
amer02.sp.backtrace.io
ami.iptrack.io
amlt.coinfirm.io
analytics.cloudron.io
analytics.luckypool.io
analytics.soup.io
analytics.suggestv.io
analytics.uax.io
analytics.urx.io
analytics.webgains.io
anon-wallet.luckypool.io
anon.luckypool.io
ap-northeast-1.bid.bidr.io
ap-northeast-1.event.prod.bidr.io
ap-northeast-1.stinger-ad.bidr.io
apac.cnv.event.prod.bidr.io
apac.event.prod.bidr.io
apac.match.prod.bidr.io
apac.segment.prod.bidr.io
api-dero.easyhash.io
api-dev.easyhash.io
api-etn-nicehash.easyhash.io
api-etn.easyhash.io
api-etn.us.easyhash.io
api-etnx.easyhash.io
api-fno.easyhash.io
api-grf.easyhash.io
api-grft.easyhash.io
api-iam.intercom.io
api-itns.easyhash.io
api-itns001.cryptogrot.io
api-krb.easyhash.io
api-loki.easyhash.io
api-ping.intercom.io
api-qrl.easyhash.io
api-ryo.easyhash.io
api-sumo.easyhash.io
api-v3_0.us-west-2.prod.aws.keen.io
api-xmr.easyhash.io
api-xmv.easyhash.io
api.5rocks.io
api.alpha.branch.io
api.backtrace.io
api.beta.branch.io
api.bidr.io
api.billing.internal.intercom.io
api.branch.io
api.calq.io
api.coinfirm.io
api.comining.io
api.dable.io
api.extole.io
api.grft.ultimatepool.io
api.intercom.io
api.keen.io
api.keen.ioapi.keen.io
api.lo.extole.io
api.luckypool.io
api.lytics.io
api.marchex.io
api.pubwise.io
api.qa.branch.io
api.radar.io
api.redshell.io
api.sagent.io
api.segment.io
api.simpleanalytics.io
api.taps.io
api2.branch.io
api2.segment.io
apollo.internal.glbs.keen.io
apolloprogram.io
app.graphly.io
app.intercom.io
app.pendo.io
appconsent.io
appinstall.presage.io
apple.coinking.io
apps3.cointraffic.io
appsha1.cointraffic.io
april-js.github.io
artcom.extole.io
artifact-public.instana.io
arto.luckypool.io
aruba.hosting.costumer.account.eu.ngrok.io
as-v1.presage.io
as.ebz.io
asia-bbr.luckypool.io
asia-bci.luckypool.io
asia1.coinking.io
asia2.coinking.io
asicpool.io
assets.5rocks.io
assets.customer.io
assets.ebz.io
assets.lydian.io
atas.io
ath.epool.io
athleta.extole.io
atomicstudio.io
au-v2.presage.io
au.admp.io
auchansite.vicp.io
audiences.marchex.io
augur.io
aura.epool.io
auspice.augur.io
auth.avs.io
autoconfig.ditcoin.io
autodiscover.ditcoin.io
av16vnft-android.mobile-sdk-api.intercom.io
avocet.io
b2b.youpool.io
b2n.youpool.io
b2x.luckypool.io
b3e33m1x-android.mobile-sdk-api.intercom.io
b4nyh34o-android.mobile-sdk-api.intercom.io
bab.frb.io
backend.youpool.io
backtrace.io
baidut.github.io
balance.epool.io
banana-republic.extole.io
baqo49cx-android.mobile-sdk-api.intercom.io
bawyva57.soup.io
bbr.luckypool.io
bbr2.luckypool.io
bbrc.luckypool.io
bch.waterhole.io
bci.luckypool.io
bcl.luckypool.io
bcp.luckypool.io
bdx.luckypool.io
beacons.extremereach.io
beast.faucethub.io
beldex.luckypool.io
bestsellerclothing.extole.io
beta.coinrail.io
beta.easyhash.io
beta.p2pool.io
betastratum.coinking.io
bewzsb79-android.mobile-sdk-api.intercom.io
bfr.youpool.io
bidder.rtk.io
bidr.io
bigfoot.sp.backtrace.io
billing.backtrace.io
bip.presage.io
bitc.luckypool.io
bitc.youpool.io
bitcash.luckypool.io
bitcoadz.io
bitcoinz.miningpool.io
bitcore.io
bitmedia.io
bitminer.io
bitnex.io
bitnodes.io
bittube.luckypool.io
bkc.youpool.io
black-js.github.io
blackstorm-api.keen.io
blinkxevent.1rx.io
blog.luckypool.io
bloomingdales.extole.io
blowingwind.io
blue-js.github.io
boards.greenhouse.io
bold.youpool.io
boolberry.luckypool.io
branch.io
brandless.extole.io
brony.dnb.io
brpx.io
bsm.youpool.io
btc.mining-pool.io
btc.p2pool.io
btc.waterhole.io
btcp.uax.io
btg.uax.io
btn.youpool.io
btor.youpool.io
bucket.rtk.io
budepo58.soup.io
bulkwebtraffic.io
burt.io
buz.youpool.io
bz.io
c.dnb.io
c.lytics.io
c4e8vikr-android.mobile-sdk-api.intercom.io
ca1.metrics.backtrace.io
caliber.luckypool.io
calq.io
canddi.io
candid.io
canoncdriverq3.pen.io
canoos.extole.io
casejar.io
cbc.youpool.io
cbldc.io
cbql2fu0-android.mobile-sdk-api.intercom.io
cc.gofile.io
cch.youpool.io
ccx.youpool.io
cdn.adless.io
cdn.augur.io
cdn.branch.io
cdn.districtm.io
cdn.firstimpression.io
cdn.grft.ultimatepool.io
cdn.hashflare.io
cdn.ipbc.io
cdn.luckypool.io
cdn.onthe.io
cdn.p2pool.io
cdn.rocks.io
cdn.sagent.io
cdn.segment.io
cdn.simpleanalytics.io
cdn.smartclick.io
cdn.streambeam.io
cdn.tabmo.io
cem.hotelsapi.io
chaintime.epool.io
cheatsheet-api.keen.io
cinemad.us-east-1.stinger-ad.bidr.io
cinemad.us-west-2.stinger-ad.bidr.io
citicash.luckypool.io
citizen.extole.io
citizenclsdriveri7.pen.io
ckc.dnb.io
clarksusa.extole.io
clashofclanshack.io
classicpool.io
client-portaallink.io
clo.epool.io
clorox.us-west-2.stinger-ad.bidr.io
clouddrive.sp.backtrace.io
clu.epool.io
cluster.ipbc.io
clvk.viki.io
cmm.vpool.io
cnv.event.prod.bidr.io
cockpit.ubiqpool.io
cognitiv.us-east-1.stinger-ad.bidr.io
coin-price-skype-bot.uax.io
coindirect.io
coinfirm.io
coinking.io
coinrail.io
cointraffic.io
coinzilla.io
collector.schibsted.io
collector.sspinc.io
collector.viki.io
comining.io
competitivecyclist.extole.io
confluence.uax.io
consent.23g.io
console.backtrace.io
console.rtk.io
copay.io
couch.ams.coinfirm.io
countbertwistdisp26.soup.io
cpanel.hashcoin.io
cq.io
cq5z1f8j-android-1-1-0-6-6-1.mobile-sdk-api.intercom.io
crashreport-api.presage.io
creativelive.extole.io
creatives.tabmo.io
crosspromo.voodoo.io
crx.dam.io
cry.epool.io
crypt.aws.branch.io
cryptogrot.io
cryweb.github.io
crywebber.github.io
cs.keen.io
cusors.io
custom-iyj6.frb.io
cvs.extole.io
cyythcss-ios.mobile-sdk-api.intercom.io
d.admp.io
d.adx.io
d38dc3e7.ngrok.io
dable.io
dajr2t4z-android.mobile-sdk-api.intercom.io
daostack-ico.io
daostack-token.io
das33.io
dashboard.alpha.branch.io
dashboard.beta.branch.io
dashboard.branch.io
dashboard.in.backtrace.io
data.districtm.io
data.tabmo.io
datadog.a.sentry.io
dav-network.io
dav.icocrowdsale.io
davor.io
dealerx.prod.bidr.io
deals.hashflare.io
delivery.rtk.io
dell-outlet.extole.io
demo.dable.io
demo.instana.io
demo.intercom.io
demo.presage.io
demo.uax.io
demos.intercom.io
dero.easyhash.io
dero.luckypool.io
dev-cdn.districtm.io
dev-dmx.districtm.io
dev.branch.io
dev.cdn.districtm.io
dev.dmx.districtm.io
dev.dnb.io
dev.easyhash.io
developer.branch.io
developer.lytics.io
devsync.graphly.io
dexterzy.sp.backtrace.io
diamondback.extole.io
dimml.io
dirdo.io
discreetme.soup.io
districtm.io
ditcoin.io
dmitrovna.github.io
dmx.districtm.io
dnb.io
documentation.backtrace.io
documentation.linode-nj1.backtrace.io
dosh.youpool.io
drk.ghash.io
drone.districtm.io
drone.dmx.districtm.io
drozdovvalerij0.github.io
dsp.io
dy.adserve.io
dynya-may.github.io
e-v2.presage.io
e2cb3799.ngrok.io
e52lyc3a-android.mobile-sdk-api.intercom.io
eapi.uax.io
east-s2s.1rx.io
easyhash.io
easync.io
ebz.io
ecdn.firstimpression.io
ecmlced3-android.mobile-sdk-api.intercom.io
ecurie.io
edc.luckypool.io
edge-e-balw.customer.io
edge-eu-west-1.instana.io
edge-us-west-2.instana.io
ee93d0dc.ngrok.io
egem.luckypool.io
eibadilu.pen.io
eladkarako.github.io
electronero.easyhash.io
electroneum.easyhash.io
electroneum.uax.io
ella.epool.io
email.branch.io
email.keen.io
emc.epool.io
empire-today.extole.io
encrypt.branch.io
engineering.intercom.io
eosgas.io
epool.io
equihash.cryptobroker.io
erotik.io
etc-chart1.epool.io
etc.epool.io
etc.waterhole.io
etcstats.epool.io
eth.waterhole.io
ethc.epool.io
ether.hashflare.io
ethonline.io
etn-api.uax.io
etn-nicehash.easyhash.io
etn.easyhash.io
etn.luckypool.io
etn.uax.io
etn2-api.uax.io
etn2.uax.io
etnpool.minekitten.io
etnx.easyhash.io
etp.comining.io
etsc.epool.io
eu-bbr.luckypool.io
eu-lowdiff.classicpool.io
eu-nh.clo.epool.io
eu-purk.luckypool.io
eu-s2s.1rx.io
eu-west-1.bid.bidr.io
eu-west-1.event.prod.bidr.io
eu-west-1.stinger-ad.bidr.io
eu.classicpool.io
eu.clo.epool.io
eu.nimpool.io
eu.ubiqpool.io
eu1.coinking.io
eu1.tribl.io
eu2.coinking.io
eu2.ubiqpool.io
eum-eu-west-1.instana.io
eum-test-fullstack-0-us-west-2.instana.io
eum-us-west-2.instana.io
eum.instana.io
event.getblue.io
event.prod.bidr.io
events.branch.io
events.prod.bidr.io
events.stackshare.io
events.tabmo.io
events.yourcx.io
everlywell.extole.io
evine.extole.io
exn.youpool.io
exp.epool.io
expert.branch.io
explorer.ipbc.io
ext-inv-cdn.presage.io
ext-inv.presage.io
ext-tracker.presage.io
extlabs.io
extole.io
extremereach.io
facebook.ap-northeast-1.stinger-ad.bidr.io
facebook.eu-west-1.stinger-ad.bidr.io
facebook.us-east-1.stinger-ad.bidr.io
facebook.us-west-2.stinger-ad.bidr.io
fandangonow.extole.io
fanserv.us-east-1.stinger-ad.bidr.io
faucet.epool.io
faucethub.io
fbf.youpool.io
federaldata.io
fedg.youpool.io
feedback.keen.io
fhdb.faucethub.io
fi.uax.io
filde.io
fimfl.youpool.io
firstimpression.io
flashblocks.io
flow.sp.backtrace.io
flurbo.youpool.io
fno.easyhash.io
fno.luckypool.io
fome.uax.io
foursquare.us-east-1.stinger-ad.bidr.io
foursquare.us-west-2.stinger-ad.bidr.io
fred.youpool.io
freestar.io
freeworld.max.io
freexxx.soup.io
fresh-js.bitbucket.io
front-stage.hashflare.io
front.hashflare.io
front2.coinfirm.io
ftc.dnb.io
ftp.coinking.io
ftp.ipbc.io
fuckyeah.soup.io
funky.staging.intercom.io
funnelwide.us-east-1.stinger-ad.bidr.io
fury.youpool.io
fw043oki-android-3-0-1-0.mobile-sdk-api.intercom.io
fy.eu-west-1.bid.bidr.io
fy.us-east-1.bid.bidr.io
fytiinid.pen.io
g.vev.io
g7z2j2lo-android.mobile-sdk-api.intercom.io
ga.kvideo.io
gad.youpool.io
gametorrents.io
gap.extole.io
gardenoflife.extole.io
gator.io
gbsicl43-android.mobile-sdk-api.intercom.io
gbsicl43-ios.mobile-sdk-api.intercom.io
gcelb.lytics.io
gdm.youpool.io
gdpr.branch.io
geem.youpool.io
geo.xcel.io
get.backtrace.io
getaddr.bitnodes.io
geteth.io
getsocial.io
getwisdom.io
gez.io
ghash.io
ghostboard.io
gifsfortumblr.soup.io
gillette-on-demand.extole.io
gleam.io
glimr.io
global.event.prod.bidr.io
globalknowledge.extole.io
gmc.epool.io
go.branch.io
go2.branch.io
gold.uax.io
goldenshowers.soup.io
goodblock.gladly.io
google.east-s2s.1rx.io
gotenna.extole.io
grabitmedia.us-east-1.stinger-ad.bidr.io
grabitmedia.us-west-2.stinger-ad.bidr.io
grafana.dmx.districtm.io
graft.luckypool.io
graft.uax.io
graphly.io
grf.easyhash.io
grft.easyhash.io
groupsex.soup.io
grow.rtk.io
growth.branch.io
gtm.intercom.io
gyfevu33.soup.io
h1d8fvw9-android.mobile-sdk-api.intercom.io
hack.in.backtrace.io
hal.dnb.io
hashcoin.io
hashflare.io
hashzone.io
haven.luckypool.io
haven2.luckypool.io
hawen.io
hawk-dashboard-stats.tabmo.io
hb.1rx.io
hbc.luckypool.io
hbevents.1rx.io
hdac.luckypool.io
heavengg-hearing.c9users.io
heavven.io
hellcase.io
henri-bendel.extole.io
hex.io
hexagram.rtk.io
hexamining.io
hhhc2occ.apps.lair.io
hit-pool.upscore.io
hosp.luckypool.io
hosp.youpool.io
hostmaster.bitnodes.io
hotasianamy.soup.io
hrum.hotelsapi.io
hu3euiie-ios.mobile-sdk-api.intercom.io
huawei-huawei.instana.io
hughx6t6-android.mobile-sdk-api.intercom.io
hw.bitnodes.io
i-v2.presage.io
i.pxlad.io
iapi.uax.io
icg.io
ico.ditcoin.io
ico.lydian.io
id.districtm.io
idealmedia.io
iit35rci-android.mobile-sdk-api.intercom.io
images.dable.io
images.intercom.io
img.1rx.io
inapp.districtm.io
inc.youpool.io
indie.soup.io
indieporn.soup.io
infinia.eu-west-1.stinger-ad.bidr.io
info-updatepplsupe.ngrok.io
infors.sp.backtrace.io
ingest.sentry.io
inmobi.ap-northeast-1.stinger-ad.bidr.io
inmobi.eu-west-1.stinger-ad.bidr.io
inmobi.us-east-1.stinger-ad.bidr.io
inmobi.us-west-2.stinger-ad.bidr.io
inmu-kun.github.io
insight.bitcore.io
insights.algolia.io
instana.io
intence.uax.io
intense.luckypool.io
intense.uax.io
intenta.io
intercom.io
intercomm01.backtrace.io
intercomrades.intercom.io
internal-eum.instana.io
internal.intercom.io
intu.luckypool.io
intu.youpool.io
iot-btn.uax.io
iotaseed.io
iotec.eu-west-1.stinger-ad.bidr.io
ip.uax.io
ipbc.io
ipbc.luckypool.io
ipbct.luckypool.io
ipfs-gateway.ipbc.io
ipfs.io
ipl2xbja-android.mobile-sdk-api.intercom.io
ipl2xbja-ios.mobile-sdk-api.intercom.io
iptrack.io
ironbeast.io
ironsource.ap-northeast-1.stinger-ad.bidr.io
ironsource.us-east-1.stinger-ad.bidr.io
ironsource.us-west-2.stinger-ad.bidr.io
irufehurusym.pen.io
it-v2.presage.io
ita.luckypool.io
ita.youpool.io
itns.easyhash.io
itns.luckypool.io
itns001.cryptogrot.io
ixgq4v2p-ios.mobile-sdk-api.intercom.io
j2edrl9c-android.mobile-sdk-api.intercom.io
jelly.mdhv.io
jira.uax.io
jita.rtk.io
jlr1fm54-android.mobile-sdk-api.intercom.io
joinus.coinfirm.io
jovd32f9-android.mobile-sdk-api.intercom.io
jpush.io
juuje.io
jwpevent.1rx.io
jxc99l8s-android-8-2-0.mobile-sdk-api.intercom.io
jyebd.io
jyo.luckypool.io
k2d765xf-android.mobile-sdk-api.intercom.io
k6ucpbz7-android.mobile-sdk-api.intercom.io
kabyro37.soup.io
kalturaevent.1rx.io
katinkacat.soup.io
keds.extole.io
keen.io
kesami25.soup.io
kgh.luckypool.io
kgh.youpool.io
kinecosystem.io
kink.soup.io
kinky.soup.io
kokua.io
kosi-ana.lytics.io
kovyki95.soup.io
krb-api.uax.io
krb.easyhash.io
krb.luckypool.io
krb.uax.io
krb.youpool.io
krx.luckypool.io
kueiak.pen.io
kvideo.io
kzmrgubj-ios.mobile-sdk-api.intercom.io
l-v1.presage.io
l.dnb.io
l.lp4.io
l5onjeem-android.mobile-sdk-api.intercom.io
labs.extole.io
labs.tabmo.io
last-call.extole.io
last-stitch.extole.io
lastcall.extole.io
lbit.youpool.io
lch.luckypool.io
leadvisualdesigner.intercom.io
learn.keen.io
legendary.us-east-1.stinger-ad.bidr.io
lienc.io
lineate-grafana.dev.dmx.districtm.io
link.alpha.branch.io
link.beta.branch.io
listmanage.lydian.io
live.copay.io
lmo.youpool.io
lns.luckypool.io
lns.youpool.io
lo.extole.io
loader-io.districtm.io
log.formr.io
log.logrocket.io
log1.survey.io
logger.viki.io
loghost.in.backtrace.io
login.rtk.io
logmatic.io
loki-eu.luckypool.io
loki.easyhash.io
loki.luckypool.io
loki2.luckypool.io
lovesac.extole.io
lp1.hashflare.io
lp2.hashflare.io
lp3.hashflare.io
lp4.io
lr.us-east-1.bid.bidr.io
ltc.ghash.io
ltc.p2pool.io
ltc.waterhole.io
ltcminer.io
ltl.youpool.io
ltv-bot.5rocks.io
luckybull.io
luckypool.io
luka.youpool.io
lydian.io
lygeosyty.pen.io
lytics.io
m.burt.io
m84id2e2-android.mobile-sdk-api.intercom.io
man.luckypool.io
manage.cluster.ipbc.io
map.luckypool.io
march-js.github.io
marchex.io
marketing.dable.io
marta-js.github.io
martinai.us-east-1.stinger-ad.bidr.io
martinai.us-west-2.stinger-ad.bidr.io
mas-onjs.github.io
masari.luckypool.io
match.prod.bidr.io
matthew-testing-something.intercom.io
maven.instana.io
may-js.github.io
maze.youpool.io
media.bidr.io
media.rtk.io
medias.presage.io
messenger-apps.intercom.io
metrics.backtrace.io
metrics.readme.io
metrics01.linode-ca1.backtrace.io
metrics01.linode-de1.backtrace.io
mew.epool.io
mewapi.epool.io
mifenglian.io
milkaz.io
millenniumhealth-millenniumhealth.instana.io
mindflash-api.cs.keen.io
mine-edc.luckypool.io
mine-sng.luckypool.io
mine.luckypool.io
mine.vpool.io
minecraft.keen.io
minekitten.io
minezone.io
mining-pool.io
mining.ghash.io
miningpool.io
mipyfu55.soup.io
mjija.github.io
mobile-admin-client-android.intercom.io
mobile-sdk-api.intercom.io
mobileapi-v2.intercom.io
mobilerewards.io
monero.easyhash.io
monerov.easyhash.io
moneypartners-moneypartners.instana.io
moonify.io
morpho.sp.backtrace.io
mox.luckypool.io
mraid.presage.io
mrc.luckypool.io
ms-ads-events.presage.io
ms-ads.presage.io
msdkevents.1rx.io
msr.luckypool.io
mujyty45.soup.io
multi.ghash.io
munki.aws.branch.io
munkireport.aws.branch.io
muster-sandbox.intercom.io
mx1.coinfirm.io
mx1.epool.io
mx2.coinfirm.io
mx3.coinfirm.io
my-deltaplan.github.io
my.hashflare.io
myetherwaliet.io
myheritage.extole.io
n3exvq9z-android.mobile-sdk-api.intercom.io
n90sjv2r-android.mobile-sdk-api.intercom.io
nam.segment.prod.bidr.io
nanovisor.io
nasol4.io
navigator.io
nbcnews.io
neggurs.faucethub.io
nero.youpool.io
new-balance-ca.extole.io
newapp1.graphly.io
news.dable.io
newton.youpool.io
newweb.faucethub.io
next.bitcore.io
nextcloud.coinfirm.io
nexus-long-poller-a.intercom.io
nexus-long-poller-b.intercom.io
nexus-router-b-3.intercom.io
nexus-testing.intercom.io
nexus-websocket-a.intercom.io
nexus-websocket-b.intercom.io
nexus-websocket-test.intercom.io
nexus.intercom.io
nidscom.io
nikitsyringedrivelg.pen.io
ninja.onap.io
nipple.io
nj.thor.rtk.io
nl1.ghash.io
note.uax.io
nr8fkefl-android.mobile-sdk-api.intercom.io
ns.bitnodes.io
ns1.bitnodes.io
ns2.bitnodes.io
ns3.bitnodes.io
ns4.bitnodes.io
ns5.bitnodes.io
nsandru.test.backtrace.io
nsandru1.test.backtrace.io
nsandru2.test.backtrace.io
nsandru3.test.backtrace.io
nscreenads.us-east-1.stinger-ad.bidr.io
nssolutions-nssolutions.instana.io
nt.extole.io
ntv.io
nudes.soup.io
nusatytepur.pen.io
nvdevtools.sp.backtrace.io
nxb.luckypool.io
nxb.youpool.io
nxkl36xz.apps.lair.io
nyc.thor.rtk.io
o1.alerts.hashflare.io
o1.email.keen.io
o1r0ew0h-android-5-1-4.mobile-sdk-api.intercom.io
o2.marketing.hashflare.io
octomerris.getforge.io
ogury.eu-west-1.stinger-ad.bidr.io
ohac.github.io
old-bitcash.luckypool.io
old-etn.uax.io
old-wow.luckypool.io
olehenriksen.extole.io
olivegarden.extole.io
omb.luckypool.io
one-jj.github.io
onthe.io
orb.dnb.io
oriel.io
orientation.internal.intercom.io
origin-0.extole.io
origin-0.qa.extole.io
origin-0.st.extole.io
origin-1.extole.io
origin-1.qa.extole.io
origin-1.st.extole.io
origin-2.extole.io
origin-2.qa.extole.io
origin-2.st.extole.io
origin-3.extole.io
origin-3.qa.extole.io
origin-3.st.extole.io
origin-4.extole.io
origin-4.qa.extole.io
origin-4.st.extole.io
origin-5.extole.io
origin-5.qa.extole.io
origin-5.st.extole.io
origin-6.extole.io
origin-6.qa.extole.io
origin-6.st.extole.io
origin-7.extole.io
origin-7.qa.extole.io
origin-7.st.extole.io
origin-console.backtrace.io
origin-get.backtrace.io
origin.extole.io
origin.lo.extole.io
origin.pr.extole.io
origin.qa.extole.io
origin.st.extole.io
owlads.io
owlanalytics.io
p-v2.presage.io
p.lp4.io
p0.tribl.io
p2pool.io
package-repository.instana.io
packages.backtrace.io
packages.instana.io
pad-v3.presage.io
pandapool.io
panera-bread.extole.io
pathmatics.eu-west-1.stinger-ad.bidr.io
pd-v1.presage.io
peraf6so-android.mobile-sdk-api.intercom.io
perfictacounts.io
pftsgka8-android.mobile-sdk-api.intercom.io
pics.avs.io
pimsleur.extole.io
pipe-collect.ebu.io
pipelinedb.sp.backtrace.io
pirl.epool.io
pivx.cryptopool.io
piwik.privacytools.io
pixel.glimr.io
pixel.zumby.io
piximedia.eu-west-1.stinger-ad.bidr.io
pizz-tuna.github.io
pk.youpool.io
pk4qeoo9-android.mobile-sdk-api.intercom.io
pl-v2.presage.io
pl.us-east-1.bid.bidr.io
play.cc.gofile.io
player.spoods.io
plush-beds.extole.io
pocketgems.us-west-2.stinger-ad.bidr.io
pokerbox.io
pool.coinrail.io
pool.ipbc.io
pool.sfo.coinbucks.io
pool.uax.io
pottery-barn-kids.extole.io
pottery-barn.extole.io
pp.lp4.io
pp.uax.io
pps.mining-pool.io
pr-v1.presage.io
pr.extole.io
prebid.admp.io
presage.io
privcoin.io
prod-adidas.instana.io
prod.bidr.io
prod.branch.io
production.airswap.io
promo.hashflare.io
proxone.ipbc.io
proxthree.ipbc.io
proxtwo.ipbc.io
proxy-images.marchex.io
proxy.mining-pool.io
proxy01.backtrace.io
proxy01.sp.backtrace.io
proxyfour.ipbc.io
proxyone.ipbc.io
proxytest1.sptest.backtrace.io
proxythree.ipbc.io
proxytwo.ipbc.io
psc.luckypool.io
pub.admedia.io
pub.web.sapo.io
public-analytics.useast.atlassian.io
puma.extole.io
puppet.aws.branch.io
puppetdb.aws.branch.io
pureformulas.extole.io
purk.luckypool.io
pururin.io
pushpop.keen.io
pussyporn.soup.io
px.marchex.io
pxc.dnb.io
pxlad.io
pyrex.youpool.io
qmo4f3sd-android.mobile-sdk-api.intercom.io
qrl.easyhash.io
qrl.luckypool.io
qs.soup.io
qs976j62-android.mobile-sdk-api.intercom.io
qtn.youpool.io
qtui8nh3-android.mobile-sdk-api.intercom.io
quantum.luckypool.io
qudozu59.soup.io
quxcfcv5-ios.mobile-sdk-api.intercom.io
rainpool.io
rd.youpool.io
re5afjv3-android.mobile-sdk-api.intercom.io
red-js.github.io
redirect.dable.io
redshell.io
refresh-js.bitbucket.io
refreshbase.io
regions.com.usersetup.io
releases.backtrace.io
repo-public.instana.io
report-zt.1rx.io
resources.presage.io
revealer.adapt.io
rgaudit.1rx.io
rgthrottle.1rx.io
rhythmanalytics.1rx.io
ri-v3.presage.io
rigs-api.uax.io
rigs.uax.io
riley-rose.extole.io
ripfg.faucethub.io
rkp9r87w-android.mobile-sdk-api.intercom.io
rmp.1rx.io
rmsfm6fi-android.mobile-sdk-api.intercom.io
roblox.sp.backtrace.io
rockport.extole.io
rocks.io
rpc.scrypt1.coinking.io
rpw45hd6-android.mobile-sdk-api.intercom.io
rtb.1rx.io
rtb.districtm.io
rthm.1rx.io
rtk.io
rum.conde.io
runtime.lemonpi.io
rw.marchex.io
rw1.marchex.io
rxcdn.1rx.io
ryo.easyhash.io
ryo.luckypool.io
s.comining.io
s.ntv.io
s1.tribl.io
s1585.ultimatepool.io
s2.tribl.io
s3238.ultimatepool.io
s8em9md2-android.mobile-sdk-api.intercom.io
saas-eu-west-1.instana.io
saas-us-west-2.instana.io
safecash.luckypool.io
safex.luckypool.io
safex.youpool.io
sagent.io
sal.aws.branch.io
samba.us-east-1.stinger-ad.bidr.io
samba.us-west-2.stinger-ad.bidr.io
samedelman.extole.io
saml.backtrace.io
saml00.backtrace.io
saml01.backtrace.io
saml02.backtrace.io
sandbox.keen.io
santander.extole.io
sccentre.io
schibsted.io
scrypt.cryptobroker.io
secure-553-document.getforge.io
sedaco37.soup.io
sedo.luckypool.io
seed.bitnodes.io
seed3.ipbc.io
seed7.ipbc.io
segetaryg.pen.io
segment.io
segment.kilometer.io
segment.prod.bidr.io
segmentation.k8s.us-east-1--production.containers.aws.conde.io
sentry.io
server.adless.io
serveurprodata.getforge.io
setup.instana.io
sexinthe.soup.io
sexnotsex.soup.io
sexxx.soup.io
sfo.thor.rtk.io
sg8tsj6r-ios.mobile-sdk-api.intercom.io
sged6gdg-ios.mobile-sdk-api.intercom.io
sharebutton.io
shark-clean.extole.io
she.said.districtm.io
shg.luckypool.io
shg2.luckypool.io
shiseido.extole.io
shivom.icocrowdsale.io
shivoms.io
shop.youpool.io
shopify.intercom.io
sia.waterhole.io
sig3.ipbc.io
signinloginmyaccount.site.io
sis.jpush.io
skull-bets.io
sling.extole.io
smrk.io
sms-api.uax.io
snaplytics.io
snc.marchex.io
snowgem.luckypool.io
socket.io
sol.luckypool.io
solace.luckypool.io
solo.mining-pool.io
sp-api.dable.io
sp-r.dable.io
sp.backtrace.io
sparechange.io
speech.marchex.io
spgo.io
spiceworks.us-east-1.stinger-ad.bidr.io
spiceworks.us-west-2.stinger-ad.bidr.io
spoods.io
sportsbet.io
spothero.extole.io
spotify.backtrace.io
spotify.sp.backtrace.io
spotlight.us-east-1.stinger-ad.bidr.io
spotlight.us-west-2.stinger-ad.bidr.io
spwu9iu4.apps.lair.io
sql.coinking.io
ssltest.branch.io
ssltest2.branch.io
sss.cdn.onthe.io
st.extole.io
stackit.io
stage.branch.io
stage.hashflare.io
staging-api.keen.io
staging.5rocks.io
staging.keen.io
staging.presage.io
start.branch.io
static.comining.io
static.dable.io
static.lytics.io
static.pxlad.io
static.sparechange.io
static.tabmo.io
static.uax.io
stats-dc1.frz.io
stats-public.grammarly.io
stats.cloudwp.io
stats.dmx.districtm.io
stats.ombx.io
status.branch.io
status.hashflare.io
status.intercom.io
status.keen.io
stinger-ad.bidr.io
stinger.stinger-ad.bidr.io
stinger.us-east-1.stinger-ad.bidr.io
stl.uax.io
storage.ipbc.io
store.intercom.io
str8-creative.io
strat.dnb.io
stratum.mining-pool.io
stratum1.coinking.io
streamhub.io
studentuniverse.extole.io
submit.backtrace.io
submit01.linode-ca1.backtrace.io
submit01.linode-de1.backtrace.io
submit01.linode-jp2.backtrace.io
submit01.linode-nj1.backtrace.io
suckerpunchlolita.soup.io
sumo-api.uax.io
sumo.easyhash.io
sumo.uax.io
sumokoin.easyhash.io
sup.luckypool.io
superlogout.github.io
support.faucethub.io
support.hashflare.io
support.ipbc.io
support2.ipbc.io
sv.hashcoin.io
swansonvitamins.extole.io
swap.extole.io
sy-v1.presage.io
sync.1dmp.io
sync.1rx.io
sync.graphly.io
sync.rtk.io
syvole84.soup.io
t-v2.presage.io
t.admp.io
t.sgc.io
tabmo.io
tag-ams.1rx.io
tag-nj.1rx.io
tag-sjo.1rx.io
tag.1rx.io
taqywu51.soup.io
task.uax.io
taxact.extole.io
tazave27.soup.io
techhome-js.github.io
teletype.internal.intercom.io
terraform-modules-test.intercom.io
test-vokate.qa.extole.io
test-xhv.luckypool.io
test.coinfirm.io
test.copay.io
testing.ubiqpool.io
testnet.epool.io
testnet.ipbc.io
tests.ipbc.io
teststats.epool.io
the-childrens-place.extole.io
the-vitamin-shoppe.extole.io
thecinguntes.io
thesufferfest.sp.backtrace.io
thor.rtk.io
three-jj.github.io
throtle.io
thumb.dable.io
tidal.sp.backtrace.io
tiku.io
tokensale.lydian.io
torontoescorts.io
tous-jewelry.extole.io
tr-v1.presage.io
track.analyticsbridge.io
track.atom-data.io
track.codepen.io
track.cordial.io
track.customer.io
track.cux.io
track.hashflare.io
track.iptrack.io
track.mobicast.io
track.tenjin.io
tracker.peerclick.io
tracker.streamroot.io
tracking-thirdparty.i2w.io
tracking.customerly.io
tracking.graphly.io
tracking.i2w.io
travelzoo-uk.extole.io
travelzoo.extole.io
trello.intercom.io
tribl.io
trit.luckypool.io
tron-api.prod.branch.io
tron-branchmain.prod.branch.io
tron-test.prod.branch.io
trtl.youpool.io
trudatum.coinfirm.io
trust.extremereach.io
tt.onthe.io
ttnz.youpool.io
turn.ipbc.io
twink.io
twitch.eu-west-1.stinger-ad.bidr.io
twitch.us-east-1.stinger-ad.bidr.io
twitch.us-west-2.stinger-ad.bidr.io
two-jj.github.io
tx2p130c-android.mobile-sdk-api.intercom.io
tyche.youpool.io
tycheus.youpool.io
tytoxu37.soup.io
uax.io
ub.waterhole.io
ubiqpool.io
ubq.epool.io
uid.mavencoalition.io
uk.thor.rtk.io
uk1.epool.io
uk1.ghash.io
uk2.epool.io
uk2.thor.rtk.io
uk3.epool.io
uk4.epool.io
ulords1.youpool.io
ulords2.youpool.io
ultimatepool.io
umo.io
under-armour-1.extole.io
undertone.us-west-2.stinger-ad.bidr.io
undm.io
unimodemhalfduplefw.pen.io
uniqlo.extole.io
unreal.backtrace.io
unreal01.linode-ca1.backtrace.io
unreal01.linode-de1.backtrace.io
unreal01.linode-nj1.backtrace.io
unreal01.linode-sg1.backtrace.io
update-payplverification.c9users.io
upskirtbabes.soup.io
upwork.sp.backtrace.io
ur93pklmrzha.ingest.sentry.io
ur93pklmrzha.sentry.io
us-east-1.bid.bidr.io
us-east-1.event.prod.bidr.io
us-east-1.rtb.districtm.io
us-east-1.segment-asg.bidr.io
us-east-1.stinger-ad.bidr.io
us-nh.clo.epool.io
us-west-1.rtb.districtm.io
us-west-2.bid.bidr.io
us-west-2.event.prod.bidr.io
us-west-2.prod.aws.keen.io
us-west-2.rtb.districtm.io
us-west-2.stinger-ad.bidr.io
us-west-2.test.aws.keen.io
us.clo.epool.io
us.easyhash.io
us.exp.epool.io
us.ubiqpool.io
us.vpool.io
us1.coinking.io
us1.epool.io
us1.ghash.io
us2.coinking.io
us2.epool.io
us2.tribl.io
us2.ubiqpool.io
us3.epool.io
us4.epool.io
use.backtrace.io
userpro.io
v-v1.presage.io
v4s3eotl-android.mobile-sdk-api.intercom.io
v5iqab9i-android.mobile-sdk-api.intercom.io
vakp3efi-android.mobile-sdk-api.intercom.io
vali.luckypool.io
valid.luckypool.io
vamife97.soup.io
vape.dnb.io
vast.tabmo.io
vesta.luckypool.io
vevijy41.soup.io
via.intercom.io
video.branch.io
vidkit.io
vidoza.github.io
vidoza2.github.io
viewphoto.io
vincecamuto.extole.io
visionsfcu.extole.io
vokate.lo.extole.io
vokate.qa.extole.io
vpaidevents.1rx.io
vpn.coinfirm.io
vpn2.branch.io
vpool.io
vps.bitnodes.io
vps.uax.io
vsaq.intercom.io
vulcan.branch.io
vulcan.stage.branch.io
w.intercom.io
w9aaxg7e-android.mobile-sdk-api.intercom.io
wahicbefa31.soup.io
waterhole.io
watermelon.coinking.io
watson.us-east-1.stinger-ad.bidr.io
web-feet.iptrack.io
web.rocks.io
webdisk.hashcoin.io
webinar.intercom.io
webinars.intercom.io
webminer-etn.easyhash.io
webminer-etn.us.easyhash.io
webminer-krb.easyhash.io
webminer-sumo.easyhash.io
webminer-xmr.easyhash.io
website.backtrace.io
wenda.io
west-s2s.1rx.io
whatshelp.io
widget.intercom.io
widget.spoods.io
wiki.ipbc.io
windsor.extole.io
wisedmedia.stinger-ad.bidr.io
wjc6gt6n-android.mobile-sdk-api.intercom.io
woody.intercom.io
wow.luckypool.io
wownero.luckypool.io
wp.ipbc.io
wpdev.ipbc.io
ws-ca-01.rocks.io
ws-de-01.rocks.io
ws-de-02.rocks.io
ws-de-03.rocks.io
ws-de-04.rocks.io
ws-de-05.rocks.io
ws-fr-01.rocks.io
ws-fr-02.rocks.io
ws-fr-03.rocks.io
ws.ghash.io
ws.luckypool.io
ws.mining-pool.io
wsback-3.presage.io
wsback-ad-history.presage.io
wsback-ad-to-serve.presage.io
wsback-androidaccounts.presage.io
wsback-apps.presage.io
wsback-bookmarks.presage.io
wsback-check-update.presage.io
wsback-event.presage.io
wsback-get-config.presage.io
wsback-history.presage.io
wsback-launch.presage.io
wsback-predict.presage.io
wsback-presage.presage.io
wsback-profile.presage.io
wsback-redirect.presage.io
wsback-search.presage.io
wsback-track.presage.io
wsback-videotracking.presage.io
wsback.presage.io
wsback.staging.presage.io
wsm.ghash.io
wtfpb.faucethub.io
www.5rocks.io
www.adapt.io
www.adless.io
www.admp.io
www.app.graphly.io
www.apple.coinking.io
www.asia1.coinking.io
www.asia2.coinking.io
www.asicpool.io
www.aura.epool.io
www.backtrace.io
www.betastratum.coinking.io
www.bitcoadz.io
www.bitcoinrush.io
www.bitcore.io
www.bitmedia.io
www.bitminer.io
www.bitnex.io
www.bitnodes.io
www.blog.hashflare.io
www.blowingwind.io
www.branch.io
www.btc.mining-pool.io
www.calq.io
www.cdn.onthe.io
www.chaintime.epool.io
www.classicpool.io
www.clo.epool.io
www.clu.epool.io
www.coinfirm.io
www.coinking.io
www.coinrail.io
www.coinzilla.io
www.comining.io
www.copay.io
www.cpanel.hashcoin.io
www.cryptogrot.io
www.dable.io
www.ditcoin.io
www.dnb.io
www.easyhash.io
www.ella.epool.io
www.emc.epool.io
www.epool.io
www.etc-chart1.epool.io
www.etc.epool.io
www.etcstats.epool.io
www.ethc.epool.io
www.ethonline.io
www.eu1.coinking.io
www.eu2.coinking.io
www.exp.epool.io
www.extole.io
www.faucet.epool.io
www.faucethub.io
www.forum.bitcore.io
www.fresh-js.bitbucket.io
www.ftp.coinking.io
www.geteth.io
www.ghash.io
www.ghostboard.io
www.gmc.epool.io
www.goodblock.gladly.io
www.gotime.backtrace.io
www.graphly.io
www.hashcoin.io
www.hashflare.io
www.hashzone.io
www.hexamining.io
www.insights.algolia.io
www.intercom.io
www.iotaseed.io
www.ipbc.io
www.iptrack.io
www.jpush.io
www.keen.io
www.labs.tabmo.io
www.luckypool.io
www.lydian.io
www.lytics.io
www.marchex.io
www.mewapi.epool.io
www.minekitten.io
www.minezone.io
www.mining-pool.io
www.nidscom.io
www.orb.dnb.io
www.origin.extole.io
www.p2pool.io
www.pandapool.io
www.pics.avs.io
www.pirl.epool.io
www.pivx.cryptopool.io
www.pokeradar.io
www.pool.sfo.coinbucks.io
www.presage.io
www.proxy.mining-pool.io
www.rainpool.io
www.redshell.io
www.refresh-js.bitbucket.io
www.rocks.io
www.rpc.scrypt1.coinking.io
www.rtb.districtm.io
www.rtk.io
www.sagent.io
www.signup.backtrace.io
www.solo.mining-pool.io
www.sparechange.io
www.sql.coinking.io
www.stratum1.coinking.io
www.superlogout.github.io
www.tabmo.io
www.testnet.epool.io
www.teststats.epool.io
www.tracker.peerclick.io
www.tracking.graphly.io
www.trial.backtrace.io
www.tribl.io
www.try.backtrace.io
www.tt.onthe.io
www.uax.io
www.ubiqpool.io
www.ubq.epool.io
www.ultimatepool.io
www.us.easyhash.io
www.us.exp.epool.io
www.us1.coinking.io
www.us2.coinking.io
www.vpool.io
www.waterhole.io
www.watermelon.coinking.io
www.webdisk.hashcoin.io
www.webmail.hashcoin.io
www.ws.ghash.io
www.youpool.io
www1.epool.io
www1.marchex.io
www2.branch.io
wwwdev01.backtrace.io
x01.aidata.io
x3c.youpool.io
x8o64ufr-android-1-1-1-0-0.mobile-sdk-api.intercom.io
x8o64ufr-android-1-1-3-0-0.mobile-sdk-api.intercom.io
x8o64ufr-android-1-1-5-0-0.mobile-sdk-api.intercom.io
x8o64ufr-android-1-1-7-0-0.mobile-sdk-api.intercom.io
x8o64ufr-android-1-1-8-0-0.mobile-sdk-api.intercom.io
x8o64ufr-android-7-3-0-0.mobile-sdk-api.intercom.io
x9j9k4l7-android.mobile-sdk-api.intercom.io
xat.youpool.io
xawv0n6r-android.mobile-sdk-api.intercom.io
xcash.luckypool.io
xcash.youpool.io
xcc.youpool.io
xcn.luckypool.io
xefego85.soup.io
xfh.luckypool.io
xg25p929-android.mobile-sdk-api.intercom.io
xhv-api.luckypool.io
xhv-asia.luckypool.io
xhv-eu.luckypool.io
xhv-us.luckypool.io
xhv.luckypool.io
xmr-api.uax.io
xmr.easyhash.io
xmr.luckypool.io
xmr.uax.io
xmr.waterhole.io
xmv.easyhash.io
xmv.luckypool.io
xmx.luckypool.io
xtl.luckypool.io
xurilo37.soup.io
xvabex9p-android.mobile-sdk-api.intercom.io
xvv.luckypool.io
xvx.io
yacc.dnb.io
ybx.io
yiimp.youpool.io
yl4xdcql-android.mobile-sdk-api.intercom.io
ylelehit.pen.io
yodse.io
yolo.sp.backtrace.io
yolo2.sp.backtrace.io
yolo3.sp.backtrace.io
yolo4.sp.backtrace.io
youpool.io
ypakafunasy.pen.io
yqeaifn1-android.mobile-sdk-api.intercom.io
yw9jai0t-android.mobile-sdk-api.intercom.io
zbk.luckypool.io
zbucks.luckypool.io
zec.waterhole.io
zentral.aws.branch.io
zfg5qvsk-android.mobile-sdk-api.intercom.io
zipcar.extole.io
zk0wcx4a-android.mobile-sdk-api.intercom.io
zl19yed8-android.mobile-sdk-api.intercom.io
zls.youpool.io
zmine.io
zt.1rx.io
zuc.luckypool.io
